%YAML 1.1
%TAG !u! tag:unity3d.com,2011:
--- !u!1045 &1
EditorBuildSettings:
  m_ObjectHideFlags: 0
  serializedVersion: 2
  m_Scenes:
  - enabled: 1
    path: Assets/PicoMobileSDK/Pvr_UnitySDK/Scenes/Examples/Sphere.unity
    guid: ba9a87c128db1d84d8fc1ed3c7084ae5
  m_configObjects: {}
